…
Create a city\_state variable and summarize
-------------------------------------------

``` r
homicide_data = homicide_data %>% 
  mutate(city_state = str_c(city, state, sep = ", ")) 

## summarize within cities to obtain the total number of homicides
total_homicides = homicide_data %>% 
  group_by(city_state) %>% 
  summarise(n_homicides = n())
total_homicides
```

    ## # A tibble: 51 x 2
    ##    city_state      n_homicides
    ##    <chr>                 <int>
    ##  1 Albuquerque, NM         378
    ##  2 Atlanta, GA             973
    ##  3 Baltimore, MD          2827
    ##  4 Baton Rouge, LA         424
    ##  5 Birmingham, AL          800
    ##  6 Boston, MA              614
    ##  7 Buffalo, NY             521
    ##  8 Charlotte, NC           687
    ##  9 Chicago, IL            5535
    ## 10 Cincinnati, OH          694
    ## # ... with 41 more rows

``` r
## summarize within cities to obtain the number of unsolved homicides
unsolved_homicides = homicide_data %>% 
  group_by(city_state) %>% 
  summarise(n_unsloved = sum(disposition %in% c("Closed without arrest", "Open/No arrest")))
unsolved_homicides
```

    ## # A tibble: 51 x 2
    ##    city_state      n_unsloved
    ##    <chr>                <int>
    ##  1 Albuquerque, NM        146
    ##  2 Atlanta, GA            373
    ##  3 Baltimore, MD         1825
    ##  4 Baton Rouge, LA        196
    ##  5 Birmingham, AL         347
    ##  6 Boston, MA             310
    ##  7 Buffalo, NY            319
    ##  8 Charlotte, NC          206
    ##  9 Chicago, IL           4073
    ## 10 Cincinnati, OH         309
    ## # ... with 41 more rows

``` r
homicide = full_join(total_homicides, unsolved_homicides, by = "city_state")
homicide
```

    ## # A tibble: 51 x 3
    ##    city_state      n_homicides n_unsloved
    ##    <chr>                 <int>      <int>
    ##  1 Albuquerque, NM         378        146
    ##  2 Atlanta, GA             973        373
    ##  3 Baltimore, MD          2827       1825
    ##  4 Baton Rouge, LA         424        196
    ##  5 Birmingham, AL          800        347
    ##  6 Boston, MA              614        310
    ##  7 Buffalo, NY             521        319
    ##  8 Charlotte, NC           687        206
    ##  9 Chicago, IL            5535       4073
    ## 10 Cincinnati, OH          694        309
    ## # ... with 41 more rows
…
homicide %>% 
  mutate(prop_test_result = purrr::map2(n_unsloved, n_homicides, prop_test_result)) %>% 
  unnest()
```

    ## Warning in prop.test(x, n): Chi-squared approximation may be incorrect

    ## # A tibble: 51 x 6
    ##    city_state      n_homicides n_unsloved estimated_prop conf_low conf_high
    ##    <chr>                 <int>      <int>          <dbl>    <dbl>     <dbl>
    ##  1 Albuquerque, NM         378        146          0.386    0.337     0.438
    ##  2 Atlanta, GA             973        373          0.383    0.353     0.415
    ##  3 Baltimore, MD          2827       1825          0.646    0.628     0.663
    ##  4 Baton Rouge, LA         424        196          0.462    0.414     0.511
    ##  5 Birmingham, AL          800        347          0.434    0.399     0.469
    ##  6 Boston, MA              614        310          0.505    0.465     0.545
    ##  7 Buffalo, NY             521        319          0.612    0.569     0.654
    ##  8 Charlotte, NC           687        206          0.300    0.266     0.336
    ##  9 Chicago, IL            5535       4073          0.736    0.724     0.747
    ## 10 Cincinnati, OH          694        309          0.445    0.408     0.483
    ## # ... with 41 more rows
…
